…
\#lista con departamentos y porcentajes

``` r
Total <- departamentos %>% filter(micro == 'Total de personas')
Total
```

    ## # A tibble: 22 x 6
    ##    Código Departamento   macro    micro               value PerTot
    ##    <chr>  <chr>          <chr>    <chr>               <dbl>  <int>
    ##  1 1      Guatemala      TotalPob Total de personas 3015081      1
    ##  2 2      El Progreso    TotalPob Total de personas  176632      2
    ##  3 3      Sacatepéquez   TotalPob Total de personas  330469      3
    ##  4 4      Chimaltenango  TotalPob Total de personas  615776      4
    ##  5 5      Escuintla      TotalPob Total de personas  733181      5
    ##  6 6      Santa Rosa     TotalPob Total de personas  396607      6
    ##  7 7      Sololá         TotalPob Total de personas  421583      7
    ##  8 8      Totonicapán    TotalPob Total de personas  418569      8
    ##  9 9      Quetzaltenango TotalPob Total de personas  799101      9
    ## 10 10     Suchitepéquez  TotalPob Total de personas  554695     10
    ## # … with 12 more rows
…
