…
``` r
#Problema 1
filenames <- list.files(path ="Datos", full.names=TRUE)  
All <- lapply(filenames, function(i){
  df <- read_excel(i)
  df$mes <- substr(i,7,8)
  df$año <- substr(i,10,13)
  return(df[,c("COD_VIAJE", "CLIENTE", "UBICACION", "CANTIDAD", "PILOTO", "Q", "CREDITO", "UNIDAD", "mes", "año")])
})
All
```

    ## [[1]]
    ## # A tibble: 192 x 10
    ##    COD_VIAJE CLIENTE UBICACION CANTIDAD PILOTO     Q CREDITO UNIDAD mes  
    ##        <dbl> <chr>       <dbl>    <dbl> <chr>  <dbl>   <dbl> <chr>  <chr>
    ##  1  10000001 EL PIN…     76002     1200 Ferna… 300        30 Camio… 01   
    ##  2  10000002 TAQUER…     76002     1433 Hecto… 358.       90 Camio… 01   
    ##  3  10000003 TIENDA…     76002     1857 Pedro… 464.       60 Camio… 01   
    ##  4  10000004 TAQUER…     76002      339 Angel…  84.8      30 Panel  01   
    ##  5  10000005 CHICHA…     76001     1644 Juan … 411        30 Camio… 01   
    ##  6  10000006 UBIQUO…     76001     1827 Luis … 457.       30 Camio… 01   
    ##  7  10000007 CHICHA…     76002     1947 Ismae… 487.       90 Camio… 01   
    ##  8  10000008 TAQUER…     76001     1716 Juan … 429        60 Camio… 01   
    ##  9  10000009 EL GAL…     76002     1601 Ismae… 400.       30 Camio… 01   
    ## 10  10000010 CHICHA…     76002     1343 Ferna… 336.       90 Camio… 01   
    ## # … with 182 more rows, and 1 more variable: año <chr>
    ## 
    ## [[2]]
    ## # A tibble: 203 x 10
    ##    COD_VIAJE CLIENTE UBICACION CANTIDAD PILOTO     Q CREDITO UNIDAD mes  
    ##        <dbl> <chr>       <dbl>    <dbl> <chr>  <dbl>   <dbl> <chr>  <chr>
    ##  1  10000193 SPORTA…     76001      568 Juan … 142        60 Camio… 02   
    ##  2  10000194 TAQUER…     76001      739 Juan … 185.       90 Camio… 02   
    ##  3  10000195 EL GAL…     76001      322 Luis …  80.5      60 Panel  02   
    ##  4  10000196 TIENDA…     76001      496 Luis … 124        60 Panel  02   
    ##  5  10000197 POLLO …     76002     1640 Hecto… 410        30 Camio… 02   
    ##  6  10000198 POLLO …     76002      955 Pedro… 239.       30 Camio… 02   
    ##  7  10000199 TAQUER…     76001     1697 Hecto… 424.       90 Camio… 02   
    ##  8  10000200 EL PIN…     76001     1756 Angel… 439        60 Camio… 02   
    ##  9  10000201 EL GAL…     76001     1283 Angel… 321.       60 Camio… 02   
    ## 10  10000202 HOSPIT…     76001      708 Felip… 177        30 Camio… 02   
    ## # … with 193 more rows, and 1 more variable: año <chr>
    ## 
    ## [[3]]
    ## # A tibble: 182 x 10
    ##    COD_VIAJE CLIENTE UBICACION CANTIDAD PILOTO     Q CREDITO UNIDAD mes  
    ##        <dbl> <chr>       <dbl>    <dbl> <chr>  <dbl>   <dbl> <chr>  <chr>
    ##  1  10000396 ABARRO…     76001     1979 Ismae…  495.      30 Camio… 03   
    ##  2  10000397 HOSPIT…     76001     1116 Felip…  279       30 Camio… 03   
    ##  3  10000398 UNIVER…     76002      384 Angel…   96       90 Panel  03   
    ##  4  10000399 BAR LA…     76002      599 Juan …  150.      30 Camio… 03   
    ##  5  10000400 POLLO …     76002      388 Hecto…   97       90 Panel  03   
    ##  6  10000401 SPORTA…     76001     1164 Hecto…  291       30 Camio… 03   
    ##  7  10000402 TAQUER…     76001     1945 Ferna…  486.      90 Camio… 03   
    ##  8  10000403 POLLO …     76002      724 Juan …  181       60 Camio… 03   
    ##  9  10000404 HOSPIT…     76002      412 Angel…  103       60 Panel  03   
    ## 10  10000405 UNIVER…     76001      807 Juan …  202.      60 Camio… 03   
    ## # … with 172 more rows, and 1 more variable: año <chr>
    ## 
    ## [[4]]
    ## # A tibble: 196 x 10
    ##    COD_VIAJE CLIENTE UBICACION CANTIDAD PILOTO     Q CREDITO UNIDAD mes  
    ##        <dbl> <chr>       <dbl>    <dbl> <chr>  <dbl>   <dbl> <chr>  <chr>
    ##  1  10000578 UNIVER…     76001     1049 Angel…  262.      60 Camio… 04   
    ##  2  10000579 POLLO …     76001      533 Felip…  133.      90 Camio… 04   
    ##  3  10000580 UBIQUO…     76002     1788 Hecto…  447       90 Camio… 04   
    ##  4  10000581 CHICHA…     76001     1987 Luis …  497.      60 Camio… 04   
    ##  5  10000582 CHICHA…     76002      649 Felip…  162.      30 Camio… 04   
    ##  6  10000583 HOSPIT…     76002      924 Hecto…  231       30 Camio… 04   
    ##  7  10000584 UBIQUO…     76002     1086 Ismae…  272.      90 Camio… 04   
    ##  8  10000585 UNIVER…     76002     1505 Angel…  376.      30 Camio… 04   
    ##  9  10000586 ABARRO…     76001     1532 Luis …  383       90 Camio… 04   
    ## 10  10000587 EL PIN…     76002      502 Pedro…  126.      90 Camio… 04   
    ## # … with 186 more rows, and 1 more variable: año <chr>
    ## 
    ## [[5]]
    ## # A tibble: 215 x 10
    ##    COD_VIAJE CLIENTE UBICACION CANTIDAD PILOTO     Q CREDITO UNIDAD mes  
    ##        <dbl> <chr>       <dbl>    <dbl> <chr>  <dbl>   <dbl> <chr>  <chr>
    ##  1  10000774 BAR LA…     76001      509 Luis … 127.       30 Camio… 05   
    ##  2  10000775 EL PIN…     76001      243 Ferna…  60.8      30 Panel  05   
    ##  3  10000776 ABARRO…     76002     1513 Ismae… 378.       60 Camio… 05   
    ##  4  10000777 EL GAL…     76002      287 Luis …  71.8      60 Panel  05   
    ##  5  10000778 CHICHA…     76002     1764 Angel… 441        90 Camio… 05   
    ##  6  10000779 SPORTA…     76002     1669 Juan … 417.       90 Camio… 05   
    ##  7  10000780 EL GAL…     76002      954 Hecto… 238.       30 Camio… 05   
    ##  8  10000781 UBIQUO…     76001      679 Juan … 170.       30 Camio… 05   
    ##  9  10000782 UBIQUO…     76001      267 Hecto…  66.8      90 Panel  05   
    ## 10  10000783 POLLO …     76002      922 Luis … 230.       60 Camio… 05   
    ## # … with 205 more rows, and 1 more variable: año <chr>
    ## 
    ## [[6]]
    ## # A tibble: 197 x 10
    ##    COD_VIAJE CLIENTE UBICACION CANTIDAD PILOTO     Q CREDITO UNIDAD mes  
    ##        <dbl> <chr>       <dbl>    <dbl> <chr>  <dbl>   <dbl> <chr>  <chr>
    ##  1  10000989 SPORTA…     76002     1325 Pedro…  331.      30 Camio… 06   
    ##  2  10000990 POLLO …     76001      497 Hecto…  124.      60 Panel  06   
    ##  3  10000991 TAQUER…     76002     1177 Ferna…  294.      60 Camio… 06   
    ##  4  10000992 ABARRO…     76002     1872 Ismae…  468       90 Camio… 06   
    ##  5  10000993 EL PIN…     76002     1663 Hecto…  416.      90 Camio… 06   
    ##  6  10000994 POLLO …     76001     1657 Pedro…  414.      90 Camio… 06   
    ##  7  10000995 CHICHA…     76002      457 Angel…  114.      60 Panel  06   
    ##  8  10000996 POLLO …     76001     1574 Felip…  394.      30 Camio… 06   
    ##  9  10000997 POLLO …     76002      904 Hecto…  226       30 Camio… 06   
    ## 10  10000998 TAQUER…     76001     1939 Hecto…  485.      90 Camio… 06   
    ## # … with 187 more rows, and 1 more variable: año <chr>
    ## 
    ## [[7]]
    ## # A tibble: 211 x 10
    ##    COD_VIAJE CLIENTE UBICACION CANTIDAD PILOTO     Q CREDITO UNIDAD mes  
    ##        <dbl> <chr>       <dbl>    <dbl> <chr>  <dbl>   <dbl> <chr>  <chr>
    ##  1  10001186 EL GAL…     76001     1085 Ferna… 271.       60 Camio… 07   
    ##  2  10001187 TIENDA…     76001     1212 Angel… 303        60 Camio… 07   
    ##  3  10001188 SPORTA…     76002      899 Hecto… 225.       30 Camio… 07   
    ##  4  10001189 TIENDA…     76001     1562 Ferna… 390.       30 Camio… 07   
    ##  5  10001190 BAR LA…     76002     1113 Angel… 278.       30 Camio… 07   
    ##  6  10001191 SPORTA…     76002      446 Pedro… 112.       30 Panel  07   
    ##  7  10001192 UBIQUO…     76002     1517 Luis … 379.       90 Camio… 07   
    ##  8  10001193 CHICHA…     76002      570 Hecto… 142.       60 Camio… 07   
    ##  9  10001194 ABARRO…     76002     1619 Pedro… 405.       60 Camio… 07   
    ## 10  10001195 UNIVER…     76001      213 Ismae…  53.2      30 Panel  07   
    ## # … with 201 more rows, and 1 more variable: año <chr>
    ## 
    ## [[8]]
    ## # A tibble: 199 x 10
    ##    COD_VIAJE CLIENTE UBICACION CANTIDAD PILOTO     Q CREDITO UNIDAD mes  
    ##        <dbl> <chr>       <dbl>    <dbl> <chr>  <dbl>   <dbl> <chr>  <chr>
    ##  1  10001397 EL GAL…     76001     1362 Ferna…  340.      60 Camio… 08   
    ##  2  10001398 TIENDA…     76002      879 Ismae…  220.      30 Camio… 08   
    ##  3  10001399 SPORTA…     76002      661 Hecto…  165.      30 Camio… 08   
    ##  4  10001400 UBIQUO…     76002     1520 Luis …  380       30 Camio… 08   
    ##  5  10001401 UNIVER…     76001      912 Pedro…  228       30 Camio… 08   
    ##  6  10001402 TIENDA…     76002     1534 Hecto…  384.      60 Camio… 08   
    ##  7  10001403 POLLO …     76001      565 Juan …  141.      30 Camio… 08   
    ##  8  10001404 BAR LA…     76002     1332 Angel…  333       60 Camio… 08   
    ##  9  10001405 TAQUER…     76001     1725 Juan …  431.      30 Camio… 08   
    ## 10  10001406 POLLO …     76001     1824 Felip…  456       60 Camio… 08   
    ## # … with 189 more rows, and 1 more variable: año <chr>
    ## 
    ## [[9]]
    ## # A tibble: 188 x 10
    ##    COD_VIAJE CLIENTE UBICACION CANTIDAD PILOTO     Q CREDITO UNIDAD mes  
    ##        <dbl> <chr>       <dbl>    <dbl> <chr>  <dbl>   <dbl> <chr>  <chr>
    ##  1  10001596 BAR LA…     76002     1617 Luis …  404.      90 Camio… 09   
    ##  2  10001597 EL GAL…     76002     1407 Felip…  352.      90 Camio… 09   
    ##  3  10001598 HOSPIT…     76001     1006 Ismae…  252.      90 Camio… 09   
    ##  4  10001599 POLLO …     76002     1768 Hecto…  442       60 Camio… 09   
    ##  5  10001600 EL PIN…     76001     1989 Hecto…  497.      60 Camio… 09   
    ##  6  10001601 POLLO …     76002      784 Felip…  196       30 Camio… 09   
    ##  7  10001602 TAQUER…     76001     1499 Hecto…  375.      90 Camio… 09   
    ##  8  10001603 EL GAL…     76001      714 Luis …  178.      30 Camio… 09   
    ##  9  10001604 TAQUER…     76002      704 Hecto…  176       90 Camio… 09   
    ## 10  10001605 EL GAL…     76001      720 Hecto…  180       90 Camio… 09   
    ## # … with 178 more rows, and 1 more variable: año <chr>
    ## 
    ## [[10]]
    ## # A tibble: 200 x 10
    ##    COD_VIAJE CLIENTE UBICACION CANTIDAD PILOTO     Q CREDITO UNIDAD mes  
    ##        <dbl> <chr>       <dbl>    <dbl> <chr>  <dbl>   <dbl> <chr>  <chr>
    ##  1  10001784 TAQUER…     76001      511 Ismae… 128.       30 Camio… 10   
    ##  2  10001785 EL GAL…     76002      349 Luis …  87.2      60 Panel  10   
    ##  3  10001786 HOSPIT…     76002     1278 Felip… 320.       60 Camio… 10   
    ##  4  10001787 EL GAL…     76002      356 Angel…  89        90 Panel  10   
    ##  5  10001788 EL PIN…     76001     1427 Angel… 357.       30 Camio… 10   
    ##  6  10001789 UBIQUO…     76001     1949 Angel… 487.       90 Camio… 10   
    ##  7  10001790 POLLO …     76002     1586 Pedro… 396.       60 Camio… 10   
    ##  8  10001791 UBIQUO…     76002     1368 Felip… 342        60 Camio… 10   
    ##  9  10001792 EL GAL…     76002      568 Hecto… 142        60 Camio… 10   
    ## 10  10001793 TAQUER…     76001      864 Ismae… 216        60 Camio… 10   
    ## # … with 190 more rows, and 1 more variable: año <chr>
    ## 
    ## [[11]]
    ## # A tibble: 197 x 10
    ##    COD_VIAJE CLIENTE UBICACION CANTIDAD PILOTO     Q CREDITO UNIDAD mes  
    ##        <dbl> <chr>       <dbl>    <dbl> <chr>  <dbl>   <dbl> <chr>  <chr>
    ##  1  10001984 EL GAL…     76001     1639 Ismae…  410.      30 Camio… 11   
    ##  2  10001985 EL PIN…     76001     1811 Angel…  453.      60 Camio… 11   
    ##  3  10001986 EL GAL…     76002      676 Juan …  169       60 Camio… 11   
    ##  4  10001987 UBIQUO…     76001      566 Hecto…  142.      90 Camio… 11   
    ##  5  10001988 CHICHA…     76001     1723 Ismae…  431.      30 Camio… 11   
    ##  6  10001989 HOSPIT…     76001      873 Pedro…  218.      90 Camio… 11   
    ##  7  10001990 UBIQUO…     76001     1524 Pedro…  381       30 Camio… 11   
    ##  8  10001991 TAQUER…     76002      805 Pedro…  201.      90 Camio… 11   
    ##  9  10001992 BAR LA…     76002     1382 Ferna…  346.      30 Camio… 11   
    ## 10  10001993 SPORTA…     76002     1430 Pedro…  358.      60 Camio… 11   
    ## # … with 187 more rows, and 1 more variable: año <chr>

``` r
all <- do.call(rbind,All)
all
```

    ## # A tibble: 2,180 x 10
    ##    COD_VIAJE CLIENTE UBICACION CANTIDAD PILOTO     Q CREDITO UNIDAD mes  
    ##        <dbl> <chr>       <dbl>    <dbl> <chr>  <dbl>   <dbl> <chr>  <chr>
    ##  1  10000001 EL PIN…     76002     1200 Ferna… 300        30 Camio… 01   
    ##  2  10000002 TAQUER…     76002     1433 Hecto… 358.       90 Camio… 01   
    ##  3  10000003 TIENDA…     76002     1857 Pedro… 464.       60 Camio… 01   
    ##  4  10000004 TAQUER…     76002      339 Angel…  84.8      30 Panel  01   
    ##  5  10000005 CHICHA…     76001     1644 Juan … 411        30 Camio… 01   
    ##  6  10000006 UBIQUO…     76001     1827 Luis … 457.       30 Camio… 01   
    ##  7  10000007 CHICHA…     76002     1947 Ismae… 487.       90 Camio… 01   
    ##  8  10000008 TAQUER…     76001     1716 Juan … 429        60 Camio… 01   
    ##  9  10000009 EL GAL…     76002     1601 Ismae… 400.       30 Camio… 01   
    ## 10  10000010 CHICHA…     76002     1343 Ferna… 336.       90 Camio… 01   
    ## # … with 2,170 more rows, and 1 more variable: año <chr>
…
``` r
beatles_count <- count(beatles_words, words, sort=TRUE)
beatles_count
```

    ## # A tibble: 2,954 x 2
    ##    words     n
    ##    <chr> <int>
    ##  1 you    2262
    ##  2 i      1770
    ##  3 the    1355
    ##  4 to     1109
    ##  5 me     1076
    ##  6 and     962
    ##  7 a       922
    ##  8 love    613
    ##  9 my      610
    ## 10 be      517
    ## # … with 2,944 more rows
…
    ##     words
    ## 1   words
    ## 2 flowing
    ## 3    like
    ## 4 endless
    ## 5    rain
    ## 6   paper

``` r
beatles_count_clean <- count(beatles_words_clean, words, sort = TRUE)
beatles_count_clean
```

    ## # A tibble: 2,795 x 2
    ##    words     n
    ##    <chr> <int>
    ##  1 love    613
    ##  2 know    436
    ##  3 oh      347
    ##  4 baby    300
    ##  5 well    265
    ##  6 can     232
    ##  7 now     225
    ##  8 got     220
    ##  9 say     218
    ## 10 go      211
    ## # … with 2,785 more rows
