…
``` r
#El mes mas ocupado es octubre
```

``` r
datos4 <- datos %>% select(`Fecha Creación`) %>% group_by(`Fecha Creación`) %>% summarise(n = n()) 
datos4
```

    ## # A tibble: 365 x 2
    ##    `Fecha Creación`     n
    ##    <date>           <int>
    ##  1 2017-01-01         653
    ##  2 2017-01-02         689
    ##  3 2017-01-03         767
    ##  4 2017-01-04         665
    ##  5 2017-01-05         721
    ##  6 2017-01-06         737
    ##  7 2017-01-07         689
    ##  8 2017-01-08         707
    ##  9 2017-01-09         659
    ## 10 2017-01-10         717
    ## # … with 355 more rows
…
