…
``` r
colSums(is.na(datos))
```

    ##        X1 COD_VIAJE   CLIENTE UBICACION  CANTIDAD    PILOTO         Q 
    ##         0         0         0         0         0         0         0 
    ##   CREDITO    UNIDAD       MES      ANIO 
    ##         0         0         0         0

``` r
datos$UNIDAD <- str_replace_all(datos$UNIDAD, '�', 'ñ')
datos
```

    ## # A tibble: 2,180 x 11
    ##       X1 COD_VIAJE CLIENTE UBICACION CANTIDAD PILOTO     Q CREDITO UNIDAD
    ##    <dbl>     <dbl> <chr>       <dbl>    <dbl> <chr>  <dbl>   <dbl> <chr> 
    ##  1     1  10000001 EL PIN…     76002     1200 Ferna… 300        30 Camio…
    ##  2     2  10000002 TAQUER…     76002     1433 Hecto… 358.       90 Camio…
    ##  3     3  10000003 TIENDA…     76002     1857 Pedro… 464.       60 Camio…
    ##  4     4  10000004 TAQUER…     76002      339 Angel…  84.8      30 Panel 
    ##  5     5  10000005 CHICHA…     76001     1644 Juan … 411        30 Camio…
    ##  6     6  10000006 UBIQUO…     76001     1827 Luis … 457.       30 Camio…
    ##  7     7  10000007 CHICHA…     76002     1947 Ismae… 487.       90 Camio…
    ##  8     8  10000008 TAQUER…     76001     1716 Juan … 429        60 Camio…
    ##  9     9  10000009 EL GAL…     76002     1601 Ismae… 400.       30 Camio…
    ## 10    10  10000010 CHICHA…     76002     1343 Ferna… 336.       90 Camio…
    ## # … with 2,170 more rows, and 2 more variables: MES <dbl>, ANIO <dbl>
…
``` r
#Total de viajes y el vehículo que en se hizo la entrega
datos %>% select(CLIENTE, COD_VIAJE, UNIDAD) %>% group_by(CLIENTE,UNIDAD) %>% summarise(viajes = n_distinct(COD_VIAJE)) %>% distinct() %>% arrange(desc(viajes))
```

    ## # A tibble: 54 x 3
    ## # Groups:   CLIENTE [18]
    ##    CLIENTE                                            UNIDAD        viajes
    ##    <chr>                                              <chr>          <int>
    ##  1 TAQUERIA EL CHINITO                                Camion Grande     81
    ##  2 ABARROTERIA EBENEZER/Despacho a cliente            Camion Grande     78
    ##  3 UNIVERSIDAD FRANCISCO MARROQUIN/Despacho a cliente Camion Grande     75
    ##  4 SPORTA, S.A./Despacho a cliente |||Faltante        Camion Grande     74
    ##  5 TIENDA LA BENDICION / Despacho a cliente           Camion Grande     74
    ##  6 EL PINCHE OBELISCO / Despacho a cliente            Camion Grande     73
    ##  7 EL PINCHE OBELISCO |||Faltante                     Camion Grande     71
    ##  8 EL GALLO NEGRO |||DEVOLUCION                       Camion Grande     70
    ##  9 POLLO PINULITO|||FALTANTE                          Camion Grande     70
    ## 10 POLLO PINULITO/Despacho a cliente                  Camion Grande     69
    ## # … with 44 more rows
…
``` r
#Cantidad de viajes que realiza cada piloto en cada vehículos
datos %>% select(PILOTO,UNIDAD) %>% group_by(PILOTO) %>% count(UNIDAD)%>% distinct()
```

    ## # A tibble: 27 x 3
    ## # Groups:   PILOTO [9]
    ##    PILOTO                  UNIDAD             n
    ##    <chr>                   <chr>          <int>
    ##  1 Angel Valdez Alegria    Camion Grande    135
    ##  2 Angel Valdez Alegria    Camion Pequeño    64
    ##  3 Angel Valdez Alegria    Panel             36
    ##  4 Felipe Villatoro        Camion Grande    126
    ##  5 Felipe Villatoro        Camion Pequeño    78
    ##  6 Felipe Villatoro        Panel             43
    ##  7 Fernando Mariano Berrio Camion Grande    157
    ##  8 Fernando Mariano Berrio Camion Pequeño    75
    ##  9 Fernando Mariano Berrio Panel             35
    ## 10 Hector Aragones Frutos  Camion Grande    132
    ## # … with 17 more rows
…
